INDEX VERSION 1.4+/home/sunbeam/Desktop/Project/Server/.metadata/.plugins/org.eclipse.wst.jsdt.core/indexes
3277664243.index
1498020047.index
941005215.index
3544717043.index
48005833.index
2419623167.index
