127.0.0.1 - - [16/Jul/2019:12:25:27 +0530] "GET / HTTP/1.1" 404 1074
127.0.0.1 - - [16/Jul/2019:15:13:42 +0530] "GET / HTTP/1.1" 404 1074
127.0.0.1 - - [16/Jul/2019:15:13:45 +0530] "GET /Project/ HTTP/1.1" 404 1047
127.0.0.1 - - [16/Jul/2019:15:13:45 +0530] "GET /favicon.ico HTTP/1.1" 404 1085
127.0.0.1 - - [16/Jul/2019:15:13:45 +0530] "GET /favicon.ico HTTP/1.1" 404 1085
127.0.0.1 - - [16/Jul/2019:15:16:46 +0530] "GET / HTTP/1.1" 404 1074
127.0.0.1 - - [16/Jul/2019:15:16:47 +0530] "GET /Project/ HTTP/1.1" 200 142
127.0.0.1 - - [16/Jul/2019:15:25:39 +0530] "GET / HTTP/1.1" 404 1074
127.0.0.1 - - [16/Jul/2019:15:25:40 +0530] "GET /Project/ HTTP/1.1" 200 142
127.0.0.1 - - [16/Jul/2019:15:44:32 +0530] "GET / HTTP/1.1" 404 1074
127.0.0.1 - - [16/Jul/2019:15:44:33 +0530] "GET /Project/ HTTP/1.1" 200 142
127.0.0.1 - - [16/Jul/2019:15:45:33 +0530] "GET / HTTP/1.1" 404 1074
127.0.0.1 - - [16/Jul/2019:15:45:34 +0530] "GET /Project/ HTTP/1.1" 200 142
127.0.0.1 - - [16/Jul/2019:15:49:08 +0530] "GET / HTTP/1.1" 404 1074
127.0.0.1 - - [16/Jul/2019:15:49:09 +0530] "GET /Project/ HTTP/1.1" 200 142
127.0.0.1 - - [16/Jul/2019:15:56:26 +0530] "GET / HTTP/1.1" 404 1074
127.0.0.1 - - [16/Jul/2019:15:56:27 +0530] "GET /Project/ HTTP/1.1" 200 142
127.0.0.1 - - [16/Jul/2019:16:50:56 +0530] "GET / HTTP/1.1" 404 1074
127.0.0.1 - - [16/Jul/2019:16:50:58 +0530] "GET /Project/ HTTP/1.1" 200 142
127.0.0.1 - - [16/Jul/2019:16:51:20 +0530] "GET /Project/user HTTP/1.1" 500 10297
127.0.0.1 - - [16/Jul/2019:16:55:43 +0530] "GET / HTTP/1.1" 404 1074
127.0.0.1 - - [16/Jul/2019:16:55:43 +0530] "GET /Project/ HTTP/1.1" 200 142
127.0.0.1 - - [16/Jul/2019:16:55:49 +0530] "GET /Project/user HTTP/1.1" 500 19088
127.0.0.1 - - [16/Jul/2019:17:15:20 +0530] "GET / HTTP/1.1" 404 1074
127.0.0.1 - - [16/Jul/2019:17:15:20 +0530] "GET /Project/ HTTP/1.1" 200 142
127.0.0.1 - - [16/Jul/2019:17:15:25 +0530] "GET /Project/user HTTP/1.1" 500 19056
127.0.0.1 - - [16/Jul/2019:17:16:29 +0530] "GET /Project/user HTTP/1.1" 500 320025
127.0.0.1 - - [16/Jul/2019:17:16:46 +0530] "GET /Project/user HTTP/1.1" 500 336031
0:0:0:0:0:0:0:1 - - [16/Jul/2019:17:16:59 +0530] "PUT /Project/user HTTP/1.1" 405 1114
0:0:0:0:0:0:0:1 - - [16/Jul/2019:17:17:17 +0530] "GET /Project/user HTTP/1.1" 500 384019
0:0:0:0:0:0:0:1 - - [16/Jul/2019:17:17:30 +0530] "GET /Project/user HTTP/1.1" 500 552050
127.0.0.1 - - [16/Jul/2019:17:17:44 +0530] "GET /Project/user HTTP/1.1" 500 552050
127.0.0.1 - - [16/Jul/2019:17:31:45 +0530] "GET / HTTP/1.1" 404 1074
127.0.0.1 - - [16/Jul/2019:17:31:45 +0530] "GET /Project/ HTTP/1.1" 200 142
127.0.0.1 - - [16/Jul/2019:17:32:00 +0530] "GET /Project/user HTTP/1.1" 500 312021
0:0:0:0:0:0:0:1 - - [16/Jul/2019:17:33:04 +0530] "GET /Project/user HTTP/1.1" 500 328006
0:0:0:0:0:0:0:1 - - [16/Jul/2019:17:33:37 +0530] "POST /Project/user HTTP/1.1" 405 1115
0:0:0:0:0:0:0:1 - - [16/Jul/2019:17:33:43 +0530] "GET /Project/user HTTP/1.1" 500 384019
127.0.0.1 - - [16/Jul/2019:17:33:56 +0530] "GET /Project/user HTTP/1.1" 500 384019
127.0.0.1 - - [16/Jul/2019:17:34:25 +0530] "GET /Project/user HTTP/1.1" 500 552050
127.0.0.1 - - [16/Jul/2019:17:34:39 +0530] "GET /Project/user HTTP/1.1" 500 552050
127.0.0.1 - - [16/Jul/2019:17:38:22 +0530] "GET / HTTP/1.1" 404 1074
127.0.0.1 - - [16/Jul/2019:17:38:23 +0530] "GET /Project/ HTTP/1.1" 200 142
127.0.0.1 - - [16/Jul/2019:17:38:29 +0530] "GET /Project/user HTTP/1.1" 500 312021
127.0.0.1 - - [16/Jul/2019:17:39:54 +0530] "GET / HTTP/1.1" 404 1074
127.0.0.1 - - [16/Jul/2019:17:39:55 +0530] "GET /Project/ HTTP/1.1" 200 142
127.0.0.1 - - [16/Jul/2019:17:39:55 +0530] "GET /Project/user HTTP/1.1" 500 304016
127.0.0.1 - - [16/Jul/2019:17:40:04 +0530] "GET /Project/user HTTP/1.1" 500 328006
127.0.0.1 - - [16/Jul/2019:17:55:20 +0530] "GET / HTTP/1.1" 404 1074
127.0.0.1 - - [16/Jul/2019:17:55:21 +0530] "GET /Project/ HTTP/1.1" 200 142
127.0.0.1 - - [16/Jul/2019:17:55:38 +0530] "GET /Project/user HTTP/1.1" 200 45
0:0:0:0:0:0:0:1 - - [16/Jul/2019:18:03:12 +0530] "GET /Project/user HTTP/1.1" 200 45
127.0.0.1 - - [16/Jul/2019:18:05:01 +0530] "GET /Project/user HTTP/1.1" 200 3059
127.0.0.1 - - [16/Jul/2019:18:13:26 +0530] "GET /Project/user HTTP/1.1" 500 360137
127.0.0.1 - - [16/Jul/2019:18:47:59 +0530] "GET / HTTP/1.1" 404 1074
127.0.0.1 - - [16/Jul/2019:18:48:00 +0530] "GET /Project/ HTTP/1.1" 200 142
127.0.0.1 - - [16/Jul/2019:18:48:51 +0530] "GET /Project/user HTTP/1.1" 200 3059
127.0.0.1 - - [16/Jul/2019:19:16:10 +0530] "GET / HTTP/1.1" 404 1074
127.0.0.1 - - [16/Jul/2019:19:16:11 +0530] "GET /Project/ HTTP/1.1" 200 142
0:0:0:0:0:0:0:1 - - [16/Jul/2019:19:16:18 +0530] "GET /Project/user HTTP/1.1" 200 3059
127.0.0.1 - - [16/Jul/2019:19:18:17 +0530] "GET /Project/user HTTP/1.1" 200 2850
127.0.0.1 - - [16/Jul/2019:19:21:01 +0530] "GET /Project/user HTTP/1.1" 200 3059
127.0.0.1 - - [16/Jul/2019:19:23:28 +0530] "GET / HTTP/1.1" 404 1074
127.0.0.1 - - [16/Jul/2019:19:23:29 +0530] "GET /Project/ HTTP/1.1" 200 142
127.0.0.1 - - [16/Jul/2019:19:23:35 +0530] "GET /Project/user HTTP/1.1" 200 3059
0:0:0:0:0:0:0:1 - - [16/Jul/2019:19:24:27 +0530] "POST /Project/user HTTP/1.1" 201 48
0:0:0:0:0:0:0:1 - - [16/Jul/2019:19:26:57 +0530] "POST /Project/user HTTP/1.1" 201 48
0:0:0:0:0:0:0:1 - - [16/Jul/2019:19:27:54 +0530] "POST /Project/user HTTP/1.1" 201 48
0:0:0:0:0:0:0:1 - - [16/Jul/2019:19:29:10 +0530] "POST /Project/user HTTP/1.1" 201 48
127.0.0.1 - - [16/Jul/2019:19:31:15 +0530] "GET /Project/user HTTP/1.1" 500 19059
127.0.0.1 - - [16/Jul/2019:19:31:16 +0530] "GET /Project/user HTTP/1.1" 500 19059
127.0.0.1 - - [16/Jul/2019:19:34:35 +0530] "GET /Project/user HTTP/1.1" 200 2787
127.0.0.1 - - [16/Jul/2019:19:39:24 +0530] "GET /Project/user HTTP/1.1" 200 2787
127.0.0.1 - - [16/Jul/2019:19:39:28 +0530] "GET /Project/user HTTP/1.1" 200 2787
0:0:0:0:0:0:0:1 - - [16/Jul/2019:19:39:42 +0530] "POST /Project/user HTTP/1.1" 500 181
0:0:0:0:0:0:0:1 - - [16/Jul/2019:19:40:31 +0530] "POST /Project/user HTTP/1.1" 500 181
0:0:0:0:0:0:0:1 - - [16/Jul/2019:19:41:25 +0530] "POST /Project/user HTTP/1.1" 201 48
127.0.0.1 - - [16/Jul/2019:20:43:34 +0530] "GET / HTTP/1.1" 404 1074
127.0.0.1 - - [16/Jul/2019:20:43:42 +0530] "GET /Project/ HTTP/1.1" 200 142
127.0.0.1 - - [16/Jul/2019:20:43:44 +0530] "GET /favicon.ico HTTP/1.1" 404 1085
127.0.0.1 - - [16/Jul/2019:20:43:51 +0530] "GET /Project/user HTTP/1.1" 500 19056
127.0.0.1 - - [16/Jul/2019:20:44:49 +0530] "GET /Project/user HTTP/1.1" 200 3065
127.0.0.1 - - [16/Jul/2019:20:51:44 +0530] "GET / HTTP/1.1" 404 1074
127.0.0.1 - - [16/Jul/2019:20:51:44 +0530] "GET /Project/ HTTP/1.1" 200 142
127.0.0.1 - - [16/Jul/2019:20:59:21 +0530] "OPTIONS /Project/user/register HTTP/1.1" 403 20
127.0.0.1 - - [16/Jul/2019:21:00:04 +0530] "OPTIONS /Project/user/register HTTP/1.1" 200 -
127.0.0.1 - - [16/Jul/2019:21:00:04 +0530] "POST /Project/user/register HTTP/1.1" 500 178
127.0.0.1 - - [16/Jul/2019:22:30:28 +0530] "GET / HTTP/1.1" 404 1074
127.0.0.1 - - [16/Jul/2019:22:30:29 +0530] "GET /Project/ HTTP/1.1" 200 142
127.0.0.1 - - [16/Jul/2019:22:30:29 +0530] "GET /favicon.ico HTTP/1.1" 404 1085
127.0.0.1 - - [16/Jul/2019:22:30:29 +0530] "GET /favicon.ico HTTP/1.1" 404 1085
127.0.0.1 - - [16/Jul/2019:22:32:01 +0530] "OPTIONS /Project/user/register HTTP/1.1" 200 -
127.0.0.1 - - [16/Jul/2019:22:32:02 +0530] "POST /Project/user/register HTTP/1.1" 201 48
127.0.0.1 - - [16/Jul/2019:22:39:19 +0530] "POST /Project/user/register HTTP/1.1" 201 48
127.0.0.1 - - [16/Jul/2019:22:42:55 +0530] "POST /Project/user/register HTTP/1.1" 201 48
127.0.0.1 - - [16/Jul/2019:23:34:33 +0530] "OPTIONS /Project/user/login HTTP/1.1" 200 -
127.0.0.1 - - [16/Jul/2019:23:34:33 +0530] "POST /Project/user/login HTTP/1.1" 500 4305
127.0.0.1 - - [16/Jul/2019:23:39:52 +0530] "POST /Project/user/login HTTP/1.1" 500 4305
127.0.0.1 - - [16/Jul/2019:23:42:42 +0530] "POST /Project/user/login HTTP/1.1" 500 4305
127.0.0.1 - - [16/Jul/2019:23:50:10 +0530] "POST /Project/user/login HTTP/1.1" 400 1205
127.0.0.1 - - [16/Jul/2019:23:52:05 +0530] "POST /Project/user/login HTTP/1.1" 200 -
127.0.0.1 - - [16/Jul/2019:23:53:24 +0530] "POST /Project/user/login HTTP/1.1" 200 -
127.0.0.1 - - [16/Jul/2019:23:53:57 +0530] "POST /Project/user/login HTTP/1.1" 200 -
